Exploratory Data Analysis on Movie Dataset
…
We want to introduce a name we came up with while doing our analysis, as we often had to refer to Budget, Gross and Profit at the same time. We shortened these three variables into the abbreviation BGP. You will see this name pop up in this file every once in a while.

Movies by studio

movies_company <- movies %>% group_by(company) %>% summarise(mean_score = mean(score), mean_budget = mean(budget), mean_gross = mean(gross), number = length(name)) %>% arrange(desc(mean_budget)) %>% filter(number > 6)

movies_company %>% select(company, mean_score) %>% arrange(desc(mean_score))

## # A tibble: 73 x 2
##    company                          mean_score
##    <fct>                                 <dbl>
##  1 Pixar Animation Studios                7.78
##  2 Marvel Studios                         7.6 
##  3 Walt Disney Animation Studios          7.36
##  4 Paramount Vantage                      7.35
##  5 PolyGram Filmed Entertainment          7.04
##  6 Icon Entertainment International       6.96
##  7 The Weinstein Company                  6.95
##  8 BBC Films                              6.95
##  9 DreamWorks Animation                   6.92
## 10 Endgame Entertainment                  6.91
## # ... with 63 more rows
movies_company %>% select(company, mean_budget, mean_gross) %>% arrange(desc(mean_gross)) %>% head()

## # A tibble: 6 x 3
##   company                         mean_budget mean_gross
##   <fct>                                 <dbl>      <dbl>
## 1 Marvel Studios                   203571429. 381663254.
## 2 Pixar Animation Studios          130083333. 270168732.
## 3 Walt Disney Animation Studios    161428571. 193716647.
## 4 DreamWorks Animation             125480000  165758976.
## 5 Twentieth Century Fox Animation   91000000  147565668.
## 6 Walt Disney Pictures              84957303. 113554799.

movies_company %>% select(company, number) %>% arrange(desc(number))

## # A tibble: 73 x 2
##    company                                number
##    <fct>                                   <int>
##  1 Universal Pictures                        265
##  2 Warner Bros.                              257
##  3 Paramount Pictures                        222
##  4 Twentieth Century Fox Film Corporation    174
##  5 New Line Cinema                           145
##  6 Columbia Pictures Corporation             137
##  7 Columbia Pictures                         108
##  8 Touchstone Pictures                        94
##  9 Walt Disney Pictures                       89
## 10 Metro-Goldwyn-Mayer (MGM)                  79
## # ... with 63 more rows
…
